decoder/simulation/qsim/ParallelDecoder.msim.vcd
$comment
	File created using the following command:
		vcd file ParallelDecoder.msim.vcd -direction
$end
$date
	Thu Nov 10 20:47:37 2022
$end
$version
	ModelSim Version 10.5b
$end
$timescale
	1ps
$end

$scope module paralleldecoder_vhd_vec_tst $end
$var wire 1 ! mPrime [3] $end
$var wire 1 " mPrime [2] $end
$var wire 1 # mPrime [1] $end
$var wire 1 $ mPrime [0] $end
$var wire 1 % valid $end
$var wire 1 & y [7] $end
$var wire 1 ' y [6] $end
$var wire 1 ( y [5] $end
$var wire 1 ) y [4] $end
$var wire 1 * y [3] $end
$var wire 1 + y [2] $end
$var wire 1 , y [1] $end
$var wire 1 - y [0] $end

$scope module i1 $end
$var wire 1 . gnd $end
$var wire 1 / vcc $end
$var wire 1 0 unknown $end
$var wire 1 1 devoe $end
$var wire 1 2 devclrn $end
$var wire 1 3 devpor $end
$var wire 1 4 ww_devoe $end
$var wire 1 5 ww_devclrn $end
$var wire 1 6 ww_devpor $end
$var wire 1 7 ww_y [7] $end
$var wire 1 8 ww_y [6] $end
$var wire 1 9 ww_y [5] $end
$var wire 1 : ww_y [4] $end
$var wire 1 ; ww_y [3] $end
$var wire 1 < ww_y [2] $end
$var wire 1 = ww_y [1] $end
$var wire 1 > ww_y [0] $end
$var wire 1 ? ww_valid $end
$var wire 1 @ ww_mPrime [3] $end
$var wire 1 A ww_mPrime [2] $end
$var wire 1 B ww_mPrime [1] $end
$var wire 1 C ww_mPrime [0] $end
$var wire 1 D \~QUARTUS_CREATED_GND~I_combout\ $end
$var wire 1 E \y[7]~input_o\ $end
$var wire 1 F \y[3]~input_o\ $end
$var wire 1 G \localDecoder0|xor2b|y~combout\ $end
$var wire 1 H \y[6]~input_o\ $end
$var wire 1 I \y[2]~input_o\ $end
$var wire 1 J \localDecoder0|xor2a|y~combout\ $end
$var wire 1 K \y[4]~input_o\ $end
$var wire 1 L \y[5]~input_o\ $end
$var wire 1 M \y[1]~input_o\ $end
$var wire 1 N \localDecoder0|xor29|y~combout\ $end
$var wire 1 O \y[0]~input_o\ $end
$var wire 1 P \m2IsError|nor20|y~0_combout\ $end
$var wire 1 Q \localDecoder0|xor20|y~combout\ $end
$var wire 1 R \localDecoder0|xor21|y~combout\ $end
$var wire 1 S \localDecoder0|xor22|y~combout\ $end
$var wire 1 T \localDecoder0|xor23|y~combout\ $end
$var wire 1 U \m0IsError|nor20|y~0_combout\ $end
$var wire 1 V \localDecoder0|xor27|y~combout\ $end
$var wire 1 W \localDecoder0|xor25|y~combout\ $end
$var wire 1 X \localDecoder0|xor26|y~combout\ $end
$var wire 1 Y \m1IsError|nor20|y~0_combout\ $end
$var wire 1 Z \nor30|or_1|y~combout\ $end
$var wire 1 [ \and20|y~combout\ $end
$var wire 1 \ \m1IsOne|or22|y~0_combout\ $end
$var wire 1 ] \and21|y~combout\ $end
$var wire 1 ^ \m2IsOne|or22|y~0_combout\ $end
$var wire 1 _ \and22|y~combout\ $end
$var wire 1 ` \and23|y~0_combout\ $end
$var wire 1 a \xor41|xor_2|y~0_combout\ $end
$var wire 1 b \xor42|xor_2|y~0_combout\ $end
$var wire 1 c \xor21|y~combout\ $end
$var wire 1 d \ALT_INV_y[6]~input_o\ $end
$var wire 1 e \ALT_INV_y[2]~input_o\ $end
$var wire 1 f \ALT_INV_y[7]~input_o\ $end
$var wire 1 g \ALT_INV_y[3]~input_o\ $end
$var wire 1 h \ALT_INV_y[5]~input_o\ $end
$var wire 1 i \ALT_INV_y[1]~input_o\ $end
$var wire 1 j \ALT_INV_y[4]~input_o\ $end
$var wire 1 k \ALT_INV_y[0]~input_o\ $end
$var wire 1 l \and23|ALT_INV_y~0_combout\ $end
$var wire 1 m \xor42|xor_2|ALT_INV_y~0_combout\ $end
$var wire 1 n \xor41|xor_2|ALT_INV_y~0_combout\ $end
$var wire 1 o \and22|ALT_INV_y~combout\ $end
$var wire 1 p \m2IsOne|or22|ALT_INV_y~0_combout\ $end
$var wire 1 q \and21|ALT_INV_y~combout\ $end
$var wire 1 r \m1IsOne|or22|ALT_INV_y~0_combout\ $end
$var wire 1 s \nor30|or_1|ALT_INV_y~combout\ $end
$var wire 1 t \m1IsError|nor20|ALT_INV_y~0_combout\ $end
$var wire 1 u \localDecoder0|xor26|ALT_INV_y~combout\ $end
$var wire 1 v \localDecoder0|xor27|ALT_INV_y~combout\ $end
$var wire 1 w \localDecoder0|xor25|ALT_INV_y~combout\ $end
$var wire 1 x \m0IsError|nor20|ALT_INV_y~0_combout\ $end
$var wire 1 y \localDecoder0|xor22|ALT_INV_y~combout\ $end
$var wire 1 z \localDecoder0|xor20|ALT_INV_y~combout\ $end
$var wire 1 { \localDecoder0|xor23|ALT_INV_y~combout\ $end
$var wire 1 | \localDecoder0|xor21|ALT_INV_y~combout\ $end
$var wire 1 } \m2IsError|nor20|ALT_INV_y~0_combout\ $end
$var wire 1 ~ \localDecoder0|xor2a|ALT_INV_y~combout\ $end
$var wire 1 !! \localDecoder0|xor2b|ALT_INV_y~combout\ $end
$var wire 1 "! \localDecoder0|xor29|ALT_INV_y~combout\ $end
$upscope $end
$upscope $end
$enddefinitions $end
#0
$dumpvars
1%
0.
1/
x0
11
12
13
14
15
16
1?
xD
0E
0F
0G
0H
0I
0J
0K
0L
0M
0N
0O
0P
0Q
0R
0S
0T
0U
0V
0W
0X
0Y
0Z
0[
0\
0]
0^
0_
0`
0a
0b
0c
1d
1e
1f
1g
1h
1i
1j
1k
1l
1m
1n
1o
1p
1q
1r
1s
1t
1u
1v
1w
1x
1y
1z
1{
1|
1}
1~
1!!
1"!
0&
0'
0(
0)
0*
0+
0,
0-
07
08
09
0:
0;
0<
0=
0>
0@
0A
0B
0C
0!
0"
0#
0$
$end
#10000
1-
1>
1O
0k
1Q
1c
0z
1`
0l
1@
0c
1!
0@
0!
#20000
0-
1,
0>
1=
1M
0O
1k
0i
1N
1W
1a
1b
1c
0m
0n
0w
0"!
0c
1@
1!
0@
0!
#30000
1-
1>
1O
0k
1P
0Q
1Y
1c
0t
1z
0}
1Z
0`
1l
0s
1@
1!
0?
0%
#40000
0-
0,
1+
0>
0=
1<
1I
0M
0O
1k
1i
0e
1J
1R
0N
0W
0a
0P
0c
1}
1n
1w
1"!
0|
0~
0Y
1t
0@
0Z
0!
1s
1?
1%
#50000
1-
1>
1O
0k
1P
1Q
1c
0z
0}
1Z
1U
0x
0s
1@
1!
0?
0%
#60000
0-
1,
0>
1=
1M
0O
1k
0i
1N
1W
1a
0b
0P
0c
1}
1m
0n
0w
0"!
1P
1Y
0t
0}
0@
0!
#70000
1-
1>
1O
0k
0P
0Q
0Y
1^
1c
0p
1t
1z
1}
0U
1x
1@
0Z
1_
1!
0o
1s
1A
1?
1"
1%
#80000
0-
0,
0+
1*
0>
0=
0<
1;
1F
0I
0M
0O
1k
1i
1e
0g
1G
0J
0N
1b
1P
0^
0c
1p
0}
0m
1"!
1~
0!!
0P
1Z
0_
1o
0s
1}
0@
0Z
0!
1s
0A
0?
0"
0%
1?
1%
#90000
1-
1>
1O
0k
1P
1Q
1Y
1c
0t
0z
0}
1U
1Z
0s
0x
1@
1!
0?
0%
#100000
0-
1,
0>
1=
1M
0O
1k
0i
1N
0W
0a
0b
0P
0Y
0c
1t
1}
1m
1n
1w
0"!
1P
0}
0@
0!
#110000
1-
1>
1O
0k
0P
0Q
1^
1c
0p
1z
1}
0U
1x
1@
0Z
1_
1!
0o
1s
1A
1?
1"
1%
#120000
0-
0,
1+
0>
0=
1<
1I
0M
0O
1k
1i
0e
1J
0R
0N
1W
1a
1P
0^
0c
1p
0}
0n
0w
1"!
1|
0~
1Y
1Z
0_
1o
0s
0t
0@
0!
0A
0?
0"
0%
#130000
1-
1>
1O
0k
0P
1Q
0Y
1^
1c
0p
1t
0z
1}
0Z
1`
1_
0o
0l
1s
1@
1!
1A
1?
1"
1%
#140000
0-
1,
0>
1=
1M
0O
1k
0i
1N
0W
0a
1b
1P
1Y
0^
0c
1p
0t
0}
0m
1n
1w
0"!
0P
1^
0Y
1c
1Z
0_
1o
0s
1t
0p
1}
0@
0Z
1_
0c
0!
0o
1s
0A
1@
0?
1c
0"
1!
0%
0@
1A
1?
1"
0!
1%
1@
1!
#150000
1-
1>
1O
0k
0Q
0c
1z
0`
1l
0@
1c
0!
1@
1!
#160000
0-
0,
0+
0*
1)
0>
0=
0<
0;
1:
1K
0F
0I
0M
0O
1k
1i
1e
1g
0j
1S
1X
0G
0J
0N
1a
0b
0c
1m
0n
1"!
1~
1!!
0u
0y
0^
1p
0@
0_
0!
1o
0A
0"
#170000
1-
1>
1O
0k
1Q
1Y
1c
0t
0z
1U
1Z
0s
0x
1@
1!
0?
0%
#180000
0-
1,
0>
1=
1M
0O
1k
0i
1N
1W
0a
1b
0Y
0c
1t
0m
1n
0w
0"!
1P
1Y
0t
0}
0@
0!
#190000
1-
1>
1O
0k
0P
0Q
0Y
1\
1c
0r
1t
1z
1}
0U
1x
1@
0Z
1]
1!
0q
1s
1B
1?
1#
1%
#200000
0-
0,
1+
0>
0=
1<
1I
0M
0O
1k
1i
0e
1J
1R
0N
0W
1a
1P
0c
0}
0n
1w
1"!
0|
0~
1U
1Y
0\
1Z
0]
1q
0s
1r
0t
0x
0@
0!
0B
0?
0#
0%
#210000
1-
1>
1O
0k
0P
1Q
0Y
1c
1t
0z
1}
0U
1[
1x
1@
0Z
1!
1s
1C
1$
1?
1%
#220000
0-
1,
0>
1=
1M
0O
1k
0i
1N
1W
0a
0b
1P
1Y
0c
0t
0}
1m
1n
0w
0"!
0P
1^
0Y
1\
1Z
0[
1`
0l
0s
0r
1t
0p
1}
0@
0Z
1[
1_
0`
1]
1c
0!
0q
1l
0o
1s
0C
0?
0c
0$
0%
1@
1B
1A
1C
1?
1$
1#
1"
1!
1%
0@
0!
#230000
1-
1>
1O
0k
1P
0Q
1Y
0\
0^
1c
1p
1r
0t
1z
0}
1U
1Z
0[
0]
0_
1o
1q
0s
0x
1@
1!
0A
0B
0C
0?
0$
0#
0"
0%
#240000
0-
0,
0+
1*
0>
0=
0<
1;
1F
0I
0M
0O
1k
1i
1e
0g
1G
0J
0N
1b
0P
1^
0c
0p
1}
0m
1"!
1~
0!!
1P
0^
1p
0}
0@
0!
#250000
1-
1>
1O
0k
0P
1Q
0Y
1\
1c
0r
1t
0z
1}
0U
1[
1x
1@
0Z
1]
1!
0q
1s
1C
1$
1B
1?
1#
1%
#260000
0-
1,
0>
1=
1M
0O
1k
0i
1N
0W
1a
0b
1P
1Y
0\
0c
1r
0t
0}
1m
0n
1w
0"!
0P
1^
0Y
1Z
0[
1`
0]
1q
0l
0s
1t
0p
1}
0@
0Z
1[
1_
0`
0!
1l
0o
1s
0B
0C
0?
0$
0#
0%
1A
1C
1?
1$
1"
1%
#270000
1-
1>
1O
0k
1P
0Q
1Y
0^
1c
1p
0t
1z
0}
1U
1Z
0[
0_
1o
0s
0x
1@
1!
0A
0C
0?
0$
0"
0%
#280000
0-
0,
1+
0>
0=
1<
1I
0M
0O
1k
1i
0e
1J
0R
0N
1W
0a
0P
1^
0c
0p
1}
1n
0w
1"!
1|
0~
0U
0Y
1\
0r
1t
1x
0@
0Z
1_
1]
0!
0q
0o
1s
1B
1A
1?
1#
1"
1%
#290000
1-
1>
1O
0k
1P
1Q
1Y
0\
0^
1c
1p
1r
0t
0z
0}
1U
1Z
0]
0_
1o
1q
0s
0x
1@
1!
0A
0B
0?
0#
0"
0%
#300000
0-
1,
0>
1=
1M
0O
1k
0i
1N
0W
1a
1b
0P
0Y
1\
1^
0c
0p
0r
1t
1}
0m
0n
1w
0"!
1Y
0\
1r
0t
0@
0!
#310000
1-
1>
1O
0k
0Q
0Y
1c
1t
1z
0U
1x
1@
0Z
1_
1!
0o
1s
1A
1?
1"
1%
#320000
0-
0,
0+
0*
0)
1(
0>
0=
0<
0;
0:
19
1L
0K
0F
0I
0M
0O
1k
1i
1e
1g
1j
0h
1V
0X
0G
0J
0c
1~
1!!
1u
0v
0^
1p
0@
0_
0!
1o
0A
0"
#330000
1-
1>
1O
0k
1P
1Q
1Y
1c
0t
0z
0}
1U
1Z
0s
0x
1@
1!
0?
0%
#340000
0-
1,
0>
1=
1M
0O
1k
0i
0N
1W
0a
0b
0P
0Y
0c
1t
1}
1m
1n
0w
1"!
1Y
0t
0@
0!
#350000
1-
1>
1O
0k
0Q
0Y
1\
1c
0r
1t
1z
0U
1x
1@
0Z
1]
1!
0q
1s
1B
1?
1#
1%
#360000
0-
0,
1+
0>
0=
1<
1I
0M
0O
1k
1i
0e
1J
1R
1N
0W
1a
0c
0n
1w
0"!
0|
0~
1U
1P
1Y
0\
1r
0t
0}
0x
0@
1Z
0]
0!
1q
0s
0B
0?
0#
0%
#370000
1-
1>
1O
0k
0P
1Q
0Y
1^
1c
0p
1t
0z
1}
0U
1[
1x
1@
0Z
1_
1!
0o
1s
1C
1$
1A
1?
1"
1%
#380000
0-
1,
0>
1=
1M
0O
1k
0i
0N
1W
0a
1b
1P
1Y
0^
0c
1p
0t
0}
0m
1n
0w
1"!
0P
0Y
1\
1Z
0[
1`
0_
1o
0l
0s
0r
1t
1}
0@
0Z
1[
0`
1]
0!
0q
1l
1s
0A
0C
0?
0$
0"
0%
1B
1C
1?
1$
1#
1%
#390000
1-
1>
1O
0k
1P
0Q
1Y
0\
1c
1r
0t
1z
0}
1U
1Z
0[
0]
1q
0s
0x
1@
1!
0B
0C
0?
0$
0#
0%
#400000
0-
0,
0+
1*
0>
0=
0<
1;
1F
0I
0M
0O
1k
1i
1e
0g
1G
0J
1N
0b
0P
0c
1}
1m
0"!
1~
0!!
1P
0}
0@
0!
#410000
1-
1>
1O
0k
0P
1Q
0Y
1\
1^
1c
0p
0r
1t
0z
1}
0U
1[
1x
1@
0Z
1]
1_
1!
0o
0q
1s
1C
1$
1A
1B
1?
1#
1"
1%
#420000
0-
1,
0>
1=
1M
0O
1k
0i
0N
0W
1a
1b
1P
1Y
0\
0^
0c
1p
1r
0t
0}
0m
0n
1w
1"!
0P
0Y
1Z
0[
1`
0]
0_
1o
1q
0l
0s
1t
1}
0@
0Z
1[
0`
0!
1l
1s
0A
0B
0C
0?
0$
0#
0"
0%
1C
1?
1$
1%
#430000
1-
1>
1O
0k
1P
0Q
1Y
1c
0t
1z
0}
1U
1Z
0[
0s
0x
1@
1!
0C
0?
0$
0%
#440000
0-
0,
1+
0>
0=
1<
1I
0M
0O
1k
1i
0e
1J
0R
1N
1W
0a
0P
0c
1}
1n
0w
0"!
1|
0~
0U
1^
0Y
1\
0r
1t
0p
1x
0@
0Z
1_
1]
0!
0q
0o
1s
1B
1A
1?
1#
1"
1%
#450000
1-
1>
1O
0k
1Q
1Y
0\
1c
1r
0t
0z
1U
1Z
0_
0]
1q
1o
0s
0x
1@
1!
0B
0A
0?
0#
0"
0%
#460000
0-
1,
0>
1=
1M
0O
1k
0i
0N
0W
1a
0b
0Y
1\
0c
0r
1t
1m
0n
1w
1"!
1P
0^
1Y
0\
1r
0t
1p
0}
0@
0!
#470000
1-
1>
1O
0k
0P
0Q
0Y
1^
1c
0p
1t
1z
1}
0U
1x
1@
0Z
1_
1!
0o
1s
1A
1?
1"
1%
#480000
0-
0,
0+
0*
1)
0>
0=
0<
0;
1:
1K
0F
0I
0M
0O
1k
1i
1e
1g
0j
0S
1X
0G
0J
1N
0a
1b
0c
0m
1n
0"!
1~
1!!
0u
1y
1Y
1P
0^
1p
0}
0t
0@
1Z
0_
0!
1o
0s
0A
0?
0"
0%
#490000
1-
1>
1O
0k
0P
1Q
0Y
1\
1c
0r
1t
0z
1}
0Z
1`
1]
0q
0l
1s
1@
1!
1B
1?
1#
1%
#500000
0-
1,
0>
1=
1M
0O
1k
0i
0N
1W
1a
0b
1P
1Y
0\
0c
1r
0t
0}
1m
0n
0w
1"!
0P
0Y
1\
1c
1Z
0]
1q
0s
0r
1t
1}
0@
0Z
1]
0c
0!
0q
1s
0B
1@
0?
1c
0#
1!
0%
0@
1B
1?
1#
0!
1%
1@
1!
#510000
1-
1>
1O
0k
0Q
0c
1z
0`
1l
0@
1c
0!
1@
1!
#520000
0-
0,
1+
0>
0=
1<
1I
0M
0O
1k
1i
0e
1J
1R
1N
0W
0a
0c
1n
1w
0"!
0|
0~
1^
0p
0@
1_
0!
0o
1A
1"
#530000
1-
1>
1O
0k
1P
1Q
1Y
0\
0^
1c
1p
1r
0t
0z
0}
1U
1Z
0]
0_
1o
1q
0s
0x
1@
1!
0A
0B
0?
0#
0"
0%
#540000
0-
1,
0>
1=
1M
0O
1k
0i
0N
1W
1a
1b
0P
0Y
1\
1^
0c
0p
0r
1t
1}
0m
0n
0w
1"!
1P
0^
1p
0}
0@
0!
#550000
1-
1>
1O
0k
0P
0Q
1c
1z
1}
0U
1x
1@
0Z
1]
1!
0q
1s
1B
1?
1#
1%
#560000
0-
0,
0+
1*
0>
0=
0<
1;
1F
0I
0M
0O
1k
1i
1e
0g
1G
0J
1N
0b
1P
0c
0}
1m
0"!
1~
0!!
0P
1^
1Z
0]
1q
0s
0p
1}
0@
0Z
1]
1_
0!
0o
0q
1s
0B
0?
0#
0%
1A
1B
1?
1#
1"
1%
#570000
1-
1>
1O
0k
1P
1Q
0^
1c
1p
0z
0}
1Z
0]
1U
0_
1o
0x
1q
0s
1@
1!
0A
0B
0?
0#
0"
0%
#580000
0-
1,
0>
1=
1M
0O
1k
0i
0N
0W
0a
1b
0P
1^
0c
0p
1}
0m
1n
1w
1"!
1P
0^
1Y
0\
1r
0t
1p
0}
0@
0!
#590000
1-
1>
1O
0k
0P
0Q
0Y
1\
1c
0r
1t
1z
1}
0U
1x
1@
0Z
1]
1!
0q
1s
1B
1?
1#
1%
#600000
0-
0,
1+
0>
0=
1<
1I
0M
0O
1k
1i
0e
1J
0R
1N
1W
1a
1P
0c
0}
0n
0w
0"!
1|
0~
0P
1^
1Z
0]
1q
0s
0p
1}
0@
0Z
1]
1_
0!
0o
0q
1s
0B
0?
0#
0%
1A
1B
1?
1#
1"
1%
#610000
1-
1>
1O
0k
1Q
1c
0z
1`
0l
1@
0c
1!
0@
0!
#620000
0-
1,
0>
1=
1M
0O
1k
0i
0N
0W
0a
0b
1c
1m
1n
1w
1"!
0c
1@
1!
0@
0!
#630000
1-
1>
1O
0k
1P
0Q
1Y
0\
0^
1c
1p
1r
0t
1z
0}
1Z
0`
0]
0_
1o
1q
1l
0s
1@
1!
0A
0B
0?
0#
0"
0%
#640000
0-
0,
0+
0*
0)
0(
1'
0>
0=
0<
0;
0:
09
18
1H
0L
0K
0F
0I
0M
0O
1k
1i
1e
1g
1j
1h
0d
1T
0V
0G
1a
1b
0c
0m
0n
1!!
1v
0{
0Y
0P
1}
1t
0@
0Z
0!
1s
1?
1%
#650000
1-
1>
1O
0k
1P
1Q
1Y
1c
0t
0z
0}
1U
1Z
0s
0x
1@
1!
0?
0%
#660000
0-
1,
0>
1=
1M
0O
1k
0i
1N
1W
0a
0b
0P
0Y
0c
1t
1}
1m
1n
0w
0"!
1P
1Y
0t
0}
0@
0!
#670000
1-
1>
1O
0k
0P
0Q
0Y
1\
1^
1c
0p
0r
1t
1z
1}
0U
1x
1@
0Z
1]
1_
1!
0o
0q
1s
1A
1B
1?
1#
1"
1%
#680000
0-
0,
1+
0>
0=
1<
1I
0M
0O
1k
1i
0e
0J
1R
0N
0W
1a
1P
0^
0c
1p
0}
0n
1w
1"!
0|
1~
1U
0P
1Y
0\
1Z
0]
0_
1o
1q
0s
1r
0t
1}
0x
0@
0!
0A
0B
0?
0#
0"
0%
#690000
1-
1>
1O
0k
1Q
0Y
1c
1t
0z
0U
1[
1x
1@
0Z
1!
1s
1C
1$
1?
1%
#700000
0-
1,
0>
1=
1M
0O
1k
0i
1N
1W
0a
1b
1Y
0c
0t
0m
1n
0w
0"!
0Y
1\
1Z
0[
1`
0l
0s
0r
1t
0@
0Z
1[
0`
1]
0!
0q
1l
1s
0C
0?
0$
0%
1B
1C
1?
1$
1#
1%
#710000
1-
1>
1O
0k
1P
0Q
1Y
0\
1c
1r
0t
1z
0}
1U
1Z
0[
0]
1q
0s
0x
1@
1!
0B
0C
0?
0$
0#
0%
#720000
0-
0,
0+
1*
0>
0=
0<
1;
1F
0I
0M
0O
1k
1i
1e
0g
1G
1J
0N
0b
0P
0c
1}
1m
1"!
0~
0!!
1P
0}
0@
0!
#730000
1-
1>
1O
0k
0P
1Q
0Y
1\
1^
1c
0p
0r
1t
0z
1}
0U
1[
1x
1@
0Z
1]
1_
1!
0o
0q
1s
1C
1$
1A
1B
1?
1#
1"
1%
#740000
0-
1,
0>
1=
1M
0O
1k
0i
1N
0W
1a
1b
1P
1Y
0\
0^
0c
1p
1r
0t
0}
0m
0n
1w
0"!
0P
1^
0Y
1Z
0[
1`
0]
0_
1o
1q
0l
0s
1t
0p
1}
0@
0Z
1[
1_
0`
0!
1l
0o
1s
0A
0B
0C
0?
0$
0#
0"
0%
1A
1C
1?
1$
1"
1%
#750000
1-
1>
1O
0k
0Q
1Y
1c
0t
1z
1U
1Z
0[
0_
1o
0s
0x
1@
1!
0A
0C
0?
0$
0"
0%
#760000
0-
0,
1+
0>
0=
1<
1I
0M
0O
1k
1i
0e
0J
0R
0N
1W
0a
0c
1n
0w
1"!
1|
1~
0U
0^
0Y
1\
0r
1t
1p
1x
0@
0Z
1]
0!
0q
1s
1B
1?
1#
1%
#770000
1-
1>
1O
0k
1P
1Q
1Y
0\
1c
1r
0t
0z
0}
1U
1Z
0]
1q
0s
0x
1@
1!
0B
0?
0#
0%
#780000
0-
1,
0>
1=
1M
0O
1k
0i
1N
0W
1a
0b
0P
0Y
1\
0c
0r
1t
1}
1m
0n
1w
0"!
1P
1Y
0\
1r
0t
0}
0@
0!
#790000
1-
1>
1O
0k
0P
0Q
0Y
1^
1c
0p
1t
1z
1}
0U
1x
1@
0Z
1_
1!
0o
1s
1A
1?
1"
1%
#800000
0-
0,
0+
0*
1)
0>
0=
0<
0;
1:
1K
0F
0I
0M
0O
1k
1i
1e
1g
0j
1S
0X
0G
1J
0N
0a
1b
0c
0m
1n
1"!
0~
1!!
1u
0y
1U
1P
0^
1p
0}
0x
0@
1Z
0_
0!
1o
0s
0A
0?
0"
0%
#810000
1-
1>
1O
0k
0P
1Q
1c
0z
1}
0U
1[
1x
1@
0Z
1!
1s
1C
1$
1?
1%
#820000
0-
1,
0>
1=
1M
0O
1k
0i
1N
1W
1a
0b
1P
0c
0}
1m
0n
0w
0"!
0P
1^
1Z
0[
1`
0l
0s
0p
1}
0@
0Z
1[
0`
1_
0!
0o
1l
1s
0C
0?
0$
0%
1A
1C
1?
1$
1"
1%
#830000
1-
1>
1O
0k
1P
0Q
1Y
0^
1c
1p
0t
1z
0}
1U
1Z
0[
0_
1o
0s
0x
1@
1!
0A
0C
0?
0$
0"
0%
#840000
0-
0,
1+
0>
0=
1<
1I
0M
0O
1k
1i
0e
0J
1R
0N
0W
0a
0P
1^
0c
0p
1}
1n
1w
1"!
0|
1~
0U
0^
0Y
1t
1p
1x
0@
0Z
1[
1`
0!
0l
1s
1c
1C
1?
1$
1%
1@
1!
#850000
1-
1>
1O
0k
1Q
0c
0z
0`
1l
0@
1c
0!
1@
1!
#860000
0-
1,
0>
1=
1M
0O
1k
0i
1N
1W
1a
1b
0c
0m
0n
0w
0"!
1P
1Y
0t
0}
0@
1Z
0[
0!
0s
0C
0?
0$
0%
#870000
1-
1>
1O
0k
0P
0Q
0Y
1c
1t
1z
1}
0Z
1[
1`
0l
1s
1@
1!
1C
1?
1$
1%
#880000
0-
0,
0+
1*
0>
0=
0<
1;
1F
0I
0M
0O
1k
1i
1e
0g
1G
1J
0N
0b
1P
0c
0}
1m
1"!
0~
0!!
0P
1^
1Z
0[
0`
1l
0s
0p
1}
0@
0Z
1[
1`
1_
0!
0o
0l
1s
0C
0?
0$
0%
1A
1C
1?
1$
1"
1%
#890000
1-
1>
1O
0k
1P
1Q
1Y
0^
1c
1p
0t
0z
0}
1Z
0[
0`
0_
1o
1l
0s
1@
1!
0A
0C
0?
0$
0"
0%
#900000
0-
1,
0>
1=
1M
0O
1k
0i
1N
0W
0a
1b
0P
0Y
1^
0c
0p
1t
1}
0m
1n
1w
0"!
0Z
1[
1_
0o
1s
0@
0!
1A
1C
1?
1$
1"
1%
#910000
1-
1>
1O
0k
0Q
1c
1z
1`
0l
1@
0c
1!
0@
0!
#920000
0-
0,
1+
0>
0=
1<
1I
0M
0O
1k
1i
0e
0J
0R
0N
1W
1a
1c
0n
0w
1"!
1|
1~
1U
0[
0`
1P
0^
1Y
0c
0t
1p
0}
1l
0x
1@
1Z
0_
1!
1o
0s
0@
0C
0$
0!
0A
0?
0"
0%
#930000
1-
1>
1O
0k
0P
1Q
0Y
1c
1t
0z
1}
0U
1[
1x
1@
0Z
1!
1s
1C
1$
1?
1%
#940000
0-
1,
0>
1=
1M
0O
1k
0i
1N
0W
0a
0b
1P
1Y
0c
0t
0}
1m
1n
1w
0"!
0P
1^
0Y
1Z
0[
1`
0l
0s
1t
0p
1}
0@
0Z
1[
1_
0`
1c
0!
1l
0o
1s
0C
0?
0c
0$
0%
1@
1A
1C
1?
1$
1"
1!
1%
0@
0!
#950000
1-
1>
1O
0k
1P
0Q
0^
1c
1p
1z
0}
1Z
1U
0[
0_
1o
0x
0s
1@
1!
0A
0C
0?
0$
0"
0%
#960000
0-
0,
0+
0*
0)
1(
0>
0=
0<
0;
0:
19
1L
0K
0F
0I
0M
0O
1k
1i
1e
1g
1j
0h
1V
1X
0G
1J
0c
0~
1!!
0u
0v
1Y
0t
0@
0!
#970000
1-
1>
1O
0k
0P
1Q
0Y
1\
1^
1c
0p
0r
1t
0z
1}
0U
1[
1x
1@
0Z
1]
1_
1!
0o
0q
1s
1C
1$
1A
1B
1?
1#
1"
1%
#980000
0-
1,
0>
1=
1M
0O
1k
0i
0N
1W
1a
1b
1P
1Y
0\
0^
0c
1p
1r
0t
0}
0m
0n
0w
1"!
0P
0Y
1\
1Z
0[
1`
0]
0_
1o
1q
0l
0s
0r
1t
1}
0@
0Z
1[
0`
1]
0!
0q
1l
1s
0A
0B
0C
0?
0$
0#
0"
0%
1B
1C
1?
1$
1#
1%
#990000
1-
1>
1O
0k
1P
0Q
1c
1z
0}
1Z
0]
1U
0[
0x
1q
0s
1@
1!
0C
0B
0?
0$
0#
0%
#1000000
0-
0,
1+
0>
0=
1<
1I
0M
0O
1k
1i
0e
0J
1R
1N
0W
0a
0P
0c
1}
1n
1w
0"!
0|
1~
0U
1[
1`
0l
1x
0@
0Z
1]
0!
0q
1s
1C
1$
1B
1?
1#
1%
#1010000
1-
1>
1O
0k
1P
1Q
1Y
0\
1c
1r
0t
0z
0}
1Z
0[
0`
0]
1q
1l
0s
1@
1!
0B
0C
0?
0$
0#
0%
#1020000
0-
1,
0>
1=
1M
0O
1k
0i
0N
1W
1a
0b
0P
0Y
1\
0c
0r
1t
1}
1m
0n
0w
1"!
0Z
1[
1]
0q
1s
0@
0!
1B
1C
1?
1$
1#
1%
#1030000
1-
1>
1O
0k
0Q
1c
1z
1`
0l
1@
0c
1!
0@
0!
#1040000
0-
0,
0+
1*
0>
0=
0<
1;
1F
0I
0M
0O
1k
1i
1e
0g
1G
1J
1N
1b
1c
0m
0"!
0~
0!!
1^
0c
0p
1@
1_
1!
0o
0@
1c
0!
1A
1"
1@
1!
#1050000
1-
1>
1O
0k
1Q
0c
0z
0`
1l
0@
1c
0!
1@
1!
#1060000
0-
1,
0>
1=
1M
0O
1k
0i
0N
0W
0a
0b
0c
1m
1n
1w
1"!
1P
0^
1Y
0\
1r
0t
1p
0}
0@
1Z
0[
0_
0]
0!
1q
1o
0s
0B
0A
0C
0?
0$
0#
0"
0%
#1070000
1-
1>
1O
0k
0P
0Q
0Y
1\
1^
1c
0p
0r
1t
1z
1}
0Z
1[
1`
1]
1_
0o
0q
0l
1s
1@
1!
1A
1B
1C
1?
1$
1#
1"
1%
#1080000
0-
0,
1+
0>
0=
1<
1I
0M
0O
1k
1i
0e
0J
0R
1N
1W
1a
1P
0^
0c
1p
0}
0n
0w
0"!
1|
1~
1U
1Z
0[
0]
0`
0_
1o
1l
1q
0s
0x
0@
0!
0A
0B
0C
0?
0$
0#
0"
0%
#1090000
1-
1>
1O
0k
0P
1Q
1^
1c
0p
0z
1}
0U
1[
1x
1@
0Z
1]
1_
1!
0o
0q
1s
1C
1$
1A
1B
1?
1#
1"
1%
#1100000
0-
1,
0>
1=
1M
0O
1k
0i
0N
0W
0a
1b
1P
0^
0c
1p
0}
0m
1n
1w
1"!
0P
1Z
0[
0]
1`
0_
1o
0l
1q
0s
1}
0@
0Z
1[
1]
0`
0!
1l
0q
1s
0A
0B
0C
0?
0$
0#
0"
0%
1B
1C
1?
1$
1#
1%
#1110000
1-
1>
1O
0k
1P
0Q
1Y
0\
1c
1r
0t
1z
0}
1U
1Z
0[
0]
1q
0s
0x
1@
1!
0B
0C
0?
0$
0#
0%
#1120000
0-
0,
0+
0*
1)
0>
0=
0<
0;
1:
1K
0F
0I
0M
0O
1k
1i
1e
1g
0j
0S
0X
0G
1J
1N
1a
0b
0c
1m
0n
0"!
0~
1!!
1u
1y
0U
0Y
0P
1^
0p
1}
1t
1x
0@
0Z
1_
0!
0o
1s
1A
1?
1"
1%
#1130000
1-
1>
1O
0k
1P
1Q
1Y
0^
1c
1p
0t
0z
0}
1U
1Z
0_
1o
0s
0x
1@
1!
0A
0?
0"
0%
