encoder/parallel_encoder/simulation/qsim/HadamardEncoder.msim.vcd
$comment
	File created using the following command:
		vcd file HadamardEncoder.msim.vcd -direction
$end
$date
	Sun Nov  6 20:40:49 2022
$end
$version
	ModelSim Version 10.5b
$end
$timescale
	1ps
$end

$scope module hadamardencoder_vhd_vec_tst $end
$var wire 1 ! m [3] $end
$var wire 1 " m [2] $end
$var wire 1 # m [1] $end
$var wire 1 $ m [0] $end
$var wire 1 % x [7] $end
$var wire 1 & x [6] $end
$var wire 1 ' x [5] $end
$var wire 1 ( x [4] $end
$var wire 1 ) x [3] $end
$var wire 1 * x [2] $end
$var wire 1 + x [1] $end
$var wire 1 , x [0] $end

$scope module i1 $end
$var wire 1 - gnd $end
$var wire 1 . vcc $end
$var wire 1 / unknown $end
$var wire 1 0 devoe $end
$var wire 1 1 devclrn $end
$var wire 1 2 devpor $end
$var wire 1 3 ww_devoe $end
$var wire 1 4 ww_devclrn $end
$var wire 1 5 ww_devpor $end
$var wire 1 6 ww_m [3] $end
$var wire 1 7 ww_m [2] $end
$var wire 1 8 ww_m [1] $end
$var wire 1 9 ww_m [0] $end
$var wire 1 : ww_x [7] $end
$var wire 1 ; ww_x [6] $end
$var wire 1 < ww_x [5] $end
$var wire 1 = ww_x [4] $end
$var wire 1 > ww_x [3] $end
$var wire 1 ? ww_x [2] $end
$var wire 1 @ ww_x [1] $end
$var wire 1 A ww_x [0] $end
$var wire 1 B \~QUARTUS_CREATED_GND~I_combout\ $end
$var wire 1 C \m[2]~input_o\ $end
$var wire 1 D \m[3]~input_o\ $end
$var wire 1 E \m[0]~input_o\ $end
$var wire 1 F \m[1]~input_o\ $end
$var wire 1 G \xor7|c~combout\ $end
$var wire 1 H \xor6|c~combout\ $end
$var wire 1 I \xor5|c~combout\ $end
$var wire 1 J \xor1|c~combout\ $end
$var wire 1 K \xor4|c~combout\ $end
$var wire 1 L \xor3|c~combout\ $end
$var wire 1 M \xor2|c~combout\ $end
$var wire 1 N \ALT_INV_m[1]~input_o\ $end
$var wire 1 O \ALT_INV_m[0]~input_o\ $end
$var wire 1 P \ALT_INV_m[3]~input_o\ $end
$var wire 1 Q \ALT_INV_m[2]~input_o\ $end
$upscope $end
$upscope $end
$enddefinitions $end
#0
$dumpvars
0-
1.
x/
10
11
12
13
14
15
xB
0C
0D
0E
0F
0G
0H
0I
0J
0K
0L
0M
1N
1O
1P
1Q
0!
0"
0#
0$
06
07
08
09
0:
0;
0<
0=
0>
0?
0@
0A
0%
0&
0'
0(
0)
0*
0+
0,
$end
#40000
1$
19
1E
0O
1G
1H
1I
1J
1K
1L
1M
1:
1%
1;
1<
1=
1>
1?
1@
1A
1,
1+
1*
1)
1(
1'
1&
#80000
0$
1#
09
18
1F
0E
1O
0N
0K
0L
0M
0:
0%
0;
0<
0=
0(
0'
0&
#120000
1$
19
1E
0O
0G
0H
0I
0J
1K
1L
1M
1:
1%
1;
1<
1=
0>
0?
0@
0A
0,
0+
0*
0)
1(
1'
1&
#160000
0$
0#
1"
09
08
17
1C
0F
0E
1O
1N
0Q
1G
1H
0M
0:
0%
0;
1@
1A
1,
1+
0&
#200000
1$
19
1E
0O
0G
0H
1I
1J
0K
0L
1M
1:
1%
1;
0<
0=
1>
1?
0@
0A
0,
0+
1*
1)
0(
0'
1&
#240000
0$
1#
09
18
1F
0E
1O
0N
1K
1L
0M
0:
0%
0;
1<
1=
1(
1'
0&
#280000
1$
19
1E
0O
1G
1H
0I
0J
0K
0L
1M
1:
1%
1;
0<
0=
0>
0?
1@
1A
1,
1+
0*
0)
0(
0'
1&
#320000
0$
0#
0"
1!
09
08
07
16
1D
0C
0F
0E
1O
1N
1Q
0P
0H
1I
1K
0:
0%
1=
1?
0@
0+
1*
1(
#360000
1$
19
1E
0O
0G
1H
0I
1J
0K
1L
0M
1:
1%
0;
1<
0=
1>
0?
1@
0A
0,
1+
0*
1)
0(
1'
0&
#400000
0$
1#
09
18
1F
0E
1O
0N
1K
0L
1M
0:
0%
1;
0<
1=
1(
0'
1&
#440000
1$
19
1E
0O
1G
0H
1I
0J
0K
1L
0M
1:
1%
0;
1<
0=
0>
1?
0@
1A
1,
0+
1*
0)
0(
1'
0&
#480000
0$
0#
1"
09
08
17
1C
0F
0E
1O
1N
0Q
0G
1H
1M
0:
0%
1;
1@
0A
0,
1+
1&
#520000
1$
19
1E
0O
1G
0H
0I
1J
1K
0L
0M
1:
1%
0;
0<
1=
1>
0?
0@
1A
1,
0+
0*
1)
1(
0'
0&
#560000
0$
1#
09
18
1F
0E
1O
0N
0K
1L
1M
0:
0%
1;
1<
0=
0(
1'
1&
#600000
1$
19
1E
0O
0G
1H
1I
0J
1K
0L
0M
1:
1%
0;
0<
1=
0>
1?
1@
0A
0,
1+
1*
0)
1(
0'
0&
#640000
0$
0#
0"
0!
09
08
07
06
0D
0C
0F
0E
1O
1N
1Q
1P
0H
0I
0K
0:
0%
0=
0?
0@
0+
0*
0(
#680000
1$
19
1E
0O
1G
1H
1I
1J
1K
1L
1M
1:
1%
1;
1<
1=
1>
1?
1@
1A
1,
1+
1*
1)
1(
1'
1&
#720000
0$
1#
09
18
1F
0E
1O
0N
0K
0L
0M
0:
0%
0;
0<
0=
0(
0'
0&
#760000
1$
19
1E
0O
0G
0H
0I
0J
1K
1L
1M
1:
1%
1;
1<
1=
0>
0?
0@
0A
0,
0+
0*
0)
1(
1'
1&
#800000
0$
0#
1"
09
08
17
1C
0F
0E
1O
1N
0Q
1G
1H
0M
0:
0%
0;
1@
1A
1,
1+
0&
#840000
1$
19
1E
0O
0G
0H
1I
1J
0K
0L
1M
1:
1%
1;
0<
0=
1>
1?
0@
0A
0,
0+
1*
1)
0(
0'
1&
#880000
0$
1#
09
18
1F
0E
1O
0N
1K
1L
0M
0:
0%
0;
1<
1=
1(
1'
0&
#920000
1$
19
1E
0O
1G
1H
0I
0J
0K
0L
1M
1:
1%
1;
0<
0=
0>
0?
1@
1A
1,
1+
0*
0)
0(
0'
1&
#960000
0$
0#
0"
1!
09
08
07
16
1D
0C
0F
0E
1O
1N
1Q
0P
0H
1I
1K
0:
0%
1=
1?
0@
0+
1*
1(
